<svg width="40" height="40" viewBox="0 0 40 40" fill="none" xmlns="http://www.w3.org/2000/svg">
<path d="M36.3 33.8222C36.6424 33.1716 36.818 32.4463 36.8111 31.7111C36.8422 31.0724 36.7431 30.4341 36.5201 29.8349C36.297 29.2356 35.9546 28.6879 35.5136 28.225C35.0726 27.762 34.5421 27.3934 33.9544 27.1416C33.3666 26.8897 32.7339 26.7599 32.0945 26.7599C31.4551 26.7599 30.8223 26.8897 30.2346 27.1416C29.6469 27.3934 29.1164 27.762 28.6754 28.225C28.2343 28.6879 27.8919 29.2356 27.6689 29.8349C27.4458 30.4341 27.3468 31.0724 27.3778 31.7111C27.3741 32.4459 27.5496 33.1705 27.8889 33.8222C27.1908 34.1481 26.5639 34.6088 26.0445 35.1778C25.5313 34.6066 24.9076 34.1455 24.2111 33.8222C24.5505 33.1705 24.7259 32.4459 24.7223 31.7111C24.7223 30.4587 24.2247 29.2576 23.3391 28.372C22.4536 27.4864 21.2524 26.9889 20 26.9889C18.7476 26.9889 17.5465 27.4864 16.6609 28.372C15.7753 29.2576 15.2778 30.4587 15.2778 31.7111C15.2741 32.4459 15.4496 33.1705 15.7889 33.8222C15.0907 34.1425 14.4664 34.604 13.9556 35.1778C13.4295 34.6085 12.7998 34.1446 12.1 33.8111C12.4406 33.1638 12.6162 32.4425 12.6111 31.7111C12.6111 31.0924 12.4893 30.4798 12.2525 29.9082C12.0158 29.3367 11.6688 28.8173 11.2313 28.3798C10.7938 27.9424 10.2745 27.5954 9.7029 27.3586C9.13132 27.1218 8.5187 27 7.90003 27C7.28136 27 6.66875 27.1218 6.09717 27.3586C5.52559 27.5954 5.00624 27.9424 4.56877 28.3798C4.13131 28.8173 3.78429 29.3367 3.54753 29.9082C3.31078 30.4798 3.18892 31.0924 3.18892 31.7111C3.18015 32.4429 3.35593 33.1652 3.70003 33.8111C2.91731 34.1126 2.23588 34.6294 1.7345 35.3019C1.23312 35.9743 0.932265 36.7749 0.866699 37.6111C0.866699 37.8734 0.970885 38.1249 1.15634 38.3104C1.34179 38.4958 1.59332 38.6 1.85559 38.6C2.11786 38.6 2.36939 38.4958 2.55484 38.3104C2.74029 38.1249 2.84448 37.8734 2.84448 37.6111C2.84448 36.8111 3.64448 35.9444 4.97781 35.3889C5.90696 35.0182 6.89974 34.8333 7.90003 34.8444C8.90032 34.8333 9.89311 35.0182 10.8223 35.3889C12.1556 35.9222 12.9667 36.7889 12.9667 37.6111C12.952 37.749 12.9665 37.8885 13.0092 38.0204C13.052 38.1524 13.122 38.2739 13.2147 38.377C13.3074 38.4801 13.4208 38.5626 13.5475 38.619C13.6742 38.6755 13.8113 38.7047 13.95 38.7047C14.0887 38.7047 14.2259 38.6755 14.3525 38.619C14.4792 38.5626 14.5926 38.4801 14.6854 38.377C14.7781 38.2739 14.8481 38.1524 14.8908 38.0204C14.9336 37.8885 14.948 37.749 14.9334 37.6111C14.9334 36.8111 15.7445 35.9444 17.0667 35.3889C18.95 34.6783 21.0278 34.6783 22.9111 35.3889C24.2334 35.9333 25.0445 36.8 25.0445 37.6111C25.0298 37.749 25.0443 37.8885 25.087 38.0204C25.1297 38.1524 25.1997 38.2739 25.2925 38.377C25.3852 38.4801 25.4986 38.5626 25.6253 38.619C25.752 38.6755 25.8891 38.7047 26.0278 38.7047C26.1665 38.7047 26.3036 38.6755 26.4303 38.619C26.557 38.5626 26.6704 38.4801 26.7631 38.377C26.8559 38.2739 26.9259 38.1524 26.9686 38.0204C27.0113 37.8885 27.0258 37.749 27.0111 37.6111C27.0111 36.8111 27.8223 35.9444 29.1445 35.3889C30.0763 35.0287 31.0677 34.8478 32.0667 34.8556C33.0623 34.8454 34.0505 35.0264 34.9778 35.3889C36.3111 35.9333 37.1111 36.8 37.1111 37.6111C37.1111 37.8734 37.2153 38.1249 37.4008 38.3104C37.5862 38.4958 37.8378 38.6 38.1 38.6C38.3623 38.6 38.6138 38.4958 38.7993 38.3104C38.9847 38.1249 39.0889 37.8734 39.0889 37.6111C39.0251 36.7819 38.7299 35.9872 38.2369 35.3174C37.7439 34.6476 37.0728 34.1296 36.3 33.8222ZM7.90003 32.9C7.11136 32.8954 6.32476 32.9812 5.55559 33.1555C5.27369 32.7271 5.12662 32.224 5.13337 31.7111C5.13337 30.9832 5.42251 30.2852 5.93719 29.7705C6.45188 29.2558 7.14994 28.9667 7.87781 28.9667C8.60568 28.9667 9.30374 29.2558 9.81843 29.7705C10.3331 30.2852 10.6223 30.9832 10.6223 31.7111C10.629 32.224 10.4819 32.7271 10.2 33.1555C9.44526 32.9851 8.67382 32.8994 7.90003 32.9ZM20 32.9C19.2151 32.8977 18.4325 32.9834 17.6667 33.1555C17.3896 32.7249 17.243 32.2232 17.2445 31.7111C17.2412 31.2832 17.3376 30.8604 17.526 30.4763C17.7145 30.0921 17.9898 29.7571 18.3302 29.4978C18.6706 29.2385 19.0667 29.0621 19.4871 28.9824C19.9075 28.9028 20.3407 28.9222 20.7524 29.039C21.164 29.1559 21.5428 29.367 21.8587 29.6556C22.1746 29.9442 22.4189 30.3025 22.5723 30.7019C22.7257 31.1014 22.784 31.5311 22.7425 31.9569C22.7011 32.3828 22.561 32.7932 22.3334 33.1555C21.5675 32.9841 20.7849 32.8984 20 32.9ZM32.1 32.9C31.3152 32.8984 30.5326 32.9841 29.7667 33.1555C29.4896 32.7249 29.343 32.2232 29.3445 31.7111C29.3889 31.012 29.698 30.356 30.2088 29.8766C30.7197 29.3973 31.3939 29.1304 32.0945 29.1304C32.795 29.1304 33.4693 29.3973 33.9801 29.8766C34.4909 30.356 34.8 31.012 34.8445 31.7111C34.8512 32.224 34.7042 32.7271 34.4223 33.1555C33.6603 32.9829 32.8813 32.8971 32.1 32.9Z" fill="#536DFE"/>
<path d="M3.2669 3.33331H4.23357V20.1C4.23357 21.4054 4.75216 22.6574 5.67526 23.5805C6.59835 24.5036 7.85034 25.0222 9.15579 25.0222H30.8447C32.1501 25.0222 33.4021 24.5036 34.3252 23.5805C35.2483 22.6574 35.7669 21.4054 35.7669 20.1V3.33331H36.7336C36.8715 3.34799 37.0109 3.33349 37.1429 3.29077C37.2748 3.24804 37.3963 3.17804 37.4995 3.0853C37.6026 2.99257 37.6851 2.87917 37.7415 2.75249C37.798 2.62581 37.8271 2.48867 37.8271 2.34997C37.8271 2.21128 37.798 2.07414 37.7415 1.94746C37.6851 1.82077 37.6026 1.70738 37.4995 1.61465C37.3963 1.52191 37.2748 1.45191 37.1429 1.40918C37.0109 1.36645 36.8715 1.35196 36.7336 1.36664H3.2669C3.12899 1.35196 2.98953 1.36645 2.85758 1.40918C2.72564 1.45191 2.60415 1.52191 2.50102 1.61465C2.39789 1.70738 2.31542 1.82077 2.25897 1.94746C2.20251 2.07414 2.17334 2.21128 2.17334 2.34997C2.17334 2.48867 2.20251 2.62581 2.25897 2.75249C2.31542 2.87917 2.39789 2.99257 2.50102 3.0853C2.60415 3.17804 2.72564 3.24804 2.85758 3.29077C2.98953 3.33349 3.12899 3.34799 3.2669 3.33331ZM33.8002 3.33331V20.1C33.7973 20.8829 33.485 21.633 32.9313 22.1866C32.3777 22.7403 31.6276 23.0526 30.8447 23.0555H9.15579C8.37283 23.0526 7.62277 22.7403 7.06913 22.1866C6.51549 21.633 6.20316 20.8829 6.20024 20.1V3.33331H33.8002Z" fill="#536DFE"/>
<path d="M10.6999 11.6333L13.5999 13.0888V16.8999C13.6578 17.4415 13.8743 17.9538 14.2221 18.3729C14.57 18.7919 15.0338 19.0989 15.5554 19.2555C16.9615 19.8447 18.4756 20.1324 19.9999 20.0999C21.5241 20.1324 23.0382 19.8447 24.4443 19.2555C24.9659 19.0989 25.4297 18.7919 25.7776 18.3729C26.1255 17.9538 26.3419 17.4415 26.3999 16.8999V13.0888L29.2999 11.6333C29.4723 11.5484 29.6159 11.4146 29.7127 11.2487C29.8095 11.0827 29.8553 10.8918 29.8443 10.6999C29.832 10.5102 29.7659 10.3279 29.6538 10.1744C29.5416 10.0209 29.388 9.9026 29.211 9.83328L20.3221 6.38884C20.0934 6.29959 19.8396 6.29959 19.611 6.38884L10.7221 9.83328C10.545 9.9026 10.3914 10.0209 10.2793 10.1744C10.1671 10.3279 10.101 10.5102 10.0887 10.6999C10.0833 10.8993 10.1389 11.0955 10.2481 11.2623C10.3574 11.4291 10.515 11.5586 10.6999 11.6333ZM24.4443 14.5444V16.9111C24.2776 17.2888 22.6776 18.1333 19.9999 18.1333C17.3221 18.1333 15.6665 17.2666 15.5554 16.9111V14.0666L16.0887 14.3222L18.8887 15.7222L19.5443 16.0555C19.6811 16.1285 19.8337 16.1666 19.9887 16.1666C20.1438 16.1666 20.2964 16.1285 20.4332 16.0555L21.0887 15.7222L23.8887 14.3222L24.4221 14.0666L24.4443 14.5444ZM19.9999 8.3555L26.4332 10.8555L20.711 13.7222L19.9999 14.0777L19.2887 13.7222L13.5665 10.8555L19.9999 8.3555Z" fill="#536DFE"/>
</svg>
